children,confidence,count,distribution,distributionUnit,median,next,path,prediction
"[org.bigml.binding.localmodel.Tree@2d69982c, org.bigml.binding.localmodel.Tree@6f8587fe]",0.26289,150,"[[""Iris-setosa"",50],[""Iris-versicolor"",50],[""Iris-virginica"",50]]",categories,,petal length,[],Iris-setosa
"[]",0.91799,43,"[[""Iris-virginica"",43]]",categories,,,"[petal length > 2.45, petal width > 1.75, petal length > 4.85]",Iris-virginica
"[]",0.92444,47,"[[""Iris-versicolor"",47]]",categories,,,"[petal length > 2.45, petal width <= 1.75, petal length <= 4.95, petal width <= 1.65]",Iris-versicolor
